{
 "manager": {
   "name": "manager",
   "description": "manager_manager",
   "icon": "cog",
   "inports": [
     {
       "name": "battery",
       "type": "String",
       "port_type": "Topic"
     },
     {
       "name": "say_something",
       "type": "SetBool",
       "port_type": "Service"
     },
     {
       "name": "crazy_action",
       "type": "Gripper",
       "port_type": "Action"
     },
     {
       "name": "joint",
       "type": "fleet",
       "port_type": "TF"
     },
     {
       "name": "tempo",
       "port_type": "Timer",
       "type": "2"
     }
   ],
   "outports": [
     {
       "name": "pub_important",
       "type": "String",
       "port_type": "Topic"
     },
     {
       "name": "close_gripper",
       "type": "Attach",
       "port_type": "Service"
     },
     {
       "name": "do_crazy_move",
       "type": "MoveBase",
       "port_type": "Action"
     },
     {
       "name": "success",
       "type": "idontcare",
       "port_type": "Transition"
     },
     {
       "name": "fail",
       "type": "againidontcare",
       "port_type": "Transition"
     }
   ],
   "nodeType": "State",
   "params": ["timeout", "blink"],
   "args": "",
   "pkg": "",
   "file": ""
 },
 "planner": {
   "name": "planner",
   "description": "planner_planner",
   "icon": "cog",
   "inports": [
     {
       "name": "new_position",
       "type": "std_msgs.msg.String",
       "port_type": "Topic"
     },
     {
       "name": "init",
       "port_type": "DB",
       "type": "String"
     }
   ],
   "outports": [],
   "nodeType": "SW",
   "params": [],
   "args": "",
   "pkg": "",
   "file": ""
 },
 "batteryMng": {
   "name": "batteryMng",
   "description": "batteryMng_batteryMng",
   "icon": "cog",
   "inports": [
     {
       "name": "battery",
       "type": "fleet",
       "port_type": "Database"
     },
     {
       "name": "init",
       "port_type": "DB",
       "type": "String"
     }
   ],
   "outports": [],
   "nodeType": "SW",
   "params": [],
   "args": "",
   "pkg": "",
   "file": ""
 },
 "test": {
   "name": "test",
   "description": "test_test",
   "icon": "cog",
   "inports": [
     {
       "name": "in",
       "type": "String",
       "port_type": "Topic"
     },
     {
       "name": "init",
       "port_type": "DB",
       "type": "String"
     }
   ],
   "outports": [],
   "nodeType": "SW",
   "params": [],
   "args": "",
   "pkg": "",
   "file": ""
 }
}