{
 "GripperGen": {
   "name": "gripper",
   "description": "Generated Gripper State",
   "icon": "cog",
   "inports": [
     {
       "name": "init",
       "type": "init",
       "port_type": "Init",
       "cb": "test_callback_init"
     },
     {
       "name": "up_sensor",
       "type": "Bool",
       "port_type": "ROS1/Subscriber",
       "cb": "test_callback_up"
     },
     {
       "name": "down_sensor",
       "type": "Bool",
       "port_type": "ROS1/Subscriber",
       "cb": "test_callback_down"
     },
     {
       "name": "db_test_cb",
       "type": "1",
       "port_type": "Redis/Subscriber",
       "cb": "db_test_cb"
     },
     {
       "name": "timer_cb",
       "type": "0.5",
       "port_type": "ROS1/Timer",
       "cb": "test_callback_timer"
     },
     {
       "name": "db_test_cb",
       "type": "1",
       "port_type": "Redis/Subscriber",
       "cb": "db_test_cb"
     }
   ],
   "outports": [
     {
       "name": "pub_yolo",
       "type": "Bool",
       "port_type": "ROS1/Publisher"
     },
     {
       "name": "fail",
       "type": "againidontcare",
       "port_type": "Transition"
     }
   ],
   "nodeType": "State",
   "params": ["move", "timeout"],
   "args": "",
   "pkg": "",
   "file": ""
 }
}